<?xml version="1.0" standalone="no"?>
<!DOCTYPE svg PUBLIC "-//W3C//DTD SVG 20010904//EN"
 "http://www.w3.org/TR/2001/REC-SVG-20010904/DTD/svg10.dtd">
<svg version="1.0" xmlns="http://www.w3.org/2000/svg"
 width="1024.000000pt" height="1024.000000pt" viewBox="0 0 1024.000000 1024.000000"
 preserveAspectRatio="xMidYMid meet">
<metadata>
Created by potrace 1.11, written by Peter Selinger 2001-2013
</metadata>
<g transform="translate(0.000000,1024.000000) scale(0.100000,-0.100000)"
fill="#000000" stroke="none">
<path d="M2373 9827 l-51 -52 41 -46 c23 -26 103 -113 178 -195 146 -161 386
-438 428 -494 14 -19 56 -73 94 -119 37 -46 67 -87 65 -91 -3 -6 -684 -611
-731 -649 -15 -12 -16 -11 -6 20 45 138 90 256 154 404 l17 39 -73 -65 c-1477
-1310 -2043 -1816 -2080 -1860 -144 -169 -231 -368 -259 -593 -17 -133 -9
-231 41 -481 l42 -210 280 -512 c154 -282 282 -513 286 -513 3 0 35 379 70
843 35 463 67 845 70 849 4 4 105 -295 226 -665 120 -370 260 -798 310 -952
l92 -280 6 75 c4 41 9 217 12 390 9 517 55 2422 63 2600 l7 165 23 -110 c36
-174 105 -529 373 -1915 319 -1649 295 -1530 302 -1500 3 14 27 455 52 980 26
525 49 966 52 980 4 18 18 -20 48 -130 24 -85 44 -150 44 -145 2 32 -85 390
-129 529 -15 50 -31 111 -35 136 -4 25 -14 61 -22 80 -16 36 -30 96 -40 165
-3 22 -11 47 -18 55 -12 15 -20 46 -32 123 -3 20 -9 37 -14 37 -5 0 -9 18 -9
40 0 22 -4 40 -10 40 -5 0 -10 20 -10 45 0 27 -5 45 -11 45 -9 0 -10 21 -6 70
5 62 4 70 -11 70 -16 0 -17 11 -10 128 9 147 30 324 58 478 18 104 21 110 62
150 24 24 250 228 503 454 l460 410 26 -30 c63 -74 306 -414 445 -621 567
-848 938 -1669 1125 -2484 27 -121 47 -175 145 -395 77 -174 113 -245 114
-225 0 17 -11 102 -25 190 -183 1177 -684 2285 -1584 3499 l-125 169 84 79
c47 44 97 88 111 98 l27 20 110 -143 c1010 -1313 1578 -2687 1675 -4057 l2
-35 75 3 c41 2 76 5 77 5 0 1 -5 67 -13 147 -131 1383 -686 2704 -1687 4020
l-126 165 27 24 c15 12 52 46 82 75 30 28 68 62 83 75 l28 25 23 -25 c56 -57
365 -472 498 -669 745 -1096 1179 -2256 1318 -3522 11 -103 20 -210 20 -238 0
-61 7 -65 93 -56 l62 7 -3 42 c-83 1151 -436 2290 -1024 3307 -227 392 -443
711 -726 1069 l-145 184 34 28 c46 37 205 121 223 117 8 -2 63 -61 121 -133
288 -351 562 -753 777 -1138 515 -923 841 -1950 967 -3047 11 -96 23 -213 26
-260 3 -47 8 -100 11 -117 l5 -33 69 0 c38 0 71 3 73 8 7 10 -19 284 -49 522
-102 811 -327 1628 -653 2365 -84 189 -288 586 -395 770 -180 306 -488 748
-705 1010 -80 96 -82 99 -59 108 29 12 257 15 318 4 41 -7 52 -15 109 -83 818
-981 1387 -2360 1621 -3929 31 -213 80 -647 80 -716 l0 -42 55 7 c63 7 56 18
78 -126 l13 -86 -64 -7 -65 -7 6 -91 c34 -510 7 -1288 -64 -1814 l-11 -83
-150 0 -151 0 6 47 c3 27 17 138 31 248 30 234 52 485 66 750 11 212 13 753 3
857 l-6 68 -73 0 -72 0 5 -278 c10 -516 -25 -1022 -114 -1634 -5 -35 -8 -38
-39 -38 -49 0 -230 22 -242 29 -7 4 -5 33 3 83 52 299 91 638 115 998 11 161
16 807 7 817 -3 2 -36 1 -75 -2 l-69 -7 -6 -392 c-6 -392 -19 -599 -58 -916
-27 -224 -78 -533 -90 -544 -7 -8 -244 35 -255 47 -2 2 5 50 16 108 91 477
150 1162 133 1542 l-6 137 -74 0 -73 0 0 -237 c0 -355 -22 -672 -71 -1023 -23
-164 -77 -472 -85 -479 -2 -3 -57 12 -122 33 l-118 39 28 156 c80 442 108 729
115 1160 l6 334 -60 -7 -60 -7 -22 48 -22 48 5 -170 c11 -418 -28 -897 -110
-1336 l-26 -137 -38 16 c-21 10 -36 22 -33 29 3 7 -6 15 -21 19 -14 3 -24 10
-21 14 3 5 -4 11 -14 15 -12 4 -18 12 -14 21 3 7 0 14 -7 14 -16 0 -42 28 -36
39 3 4 -3 16 -14 26 -10 9 -16 23 -13 31 3 8 -1 14 -8 14 -8 0 -6 5 5 13 16
12 16 14 -9 25 -26 12 -27 14 -9 26 17 13 17 14 -4 20 -25 8 -27 17 -10 34 9
9 9 12 -2 12 -11 1 -10 4 4 15 18 14 18 15 -7 26 -24 11 -25 13 -10 24 15 11
14 14 -12 27 l-29 15 23 8 c19 6 21 9 10 16 -12 8 -12 10 0 18 11 7 7 14 -20
30 -22 14 -28 21 -16 21 9 0 17 4 17 9 0 9 -141 94 -147 88 -2 -2 6 -16 18
-31 l21 -26 -38 22 -37 22 18 -27 c10 -17 13 -27 6 -27 -7 0 -5 -11 6 -27 l18
-28 -27 18 c-32 20 -35 16 -11 -20 l18 -26 -29 18 -29 19 18 -35 c18 -33 18
-34 -1 -19 -18 15 -18 14 -1 -12 23 -37 22 -41 -9 -21 -27 17 -27 17 -15 -4
17 -33 14 -37 -15 -19 l-25 17 17 -33 c16 -32 16 -32 -1 -18 -17 14 -17 14 -7
-7 11 -21 11 -21 -18 -13 -28 8 -29 7 -19 -11 10 -19 9 -19 -25 -5 -32 13 -34
13 -28 -2 5 -15 3 -15 -22 2 -16 10 -25 12 -20 5 4 -7 -8 -2 -26 11 -27 20
-32 21 -27 6 7 -18 2 -17 -45 16 -32 22 -39 23 -32 3 10 -25 -5 -18 -107 55
-105 75 -120 90 -92 90 13 0 7 9 -22 35 -22 19 -36 34 -32 35 5 0 -6 18 -23
40 -17 22 -27 40 -21 40 7 0 5 10 -5 26 -15 22 -15 27 -3 35 12 7 12 9 0 9 -8
0 -11 3 -8 7 4 3 2 12 -4 20 -9 10 -8 13 0 13 7 0 9 5 6 10 -3 6 4 10 16 10
21 0 22 1 4 20 -18 19 -17 20 6 20 l24 1 -23 19 -23 19 45 6 46 7 -23 18 -22
18 30 -6 c27 -5 29 -4 16 11 -12 15 -11 17 8 17 12 0 19 5 16 10 -3 6 4 10 16
10 18 0 19 2 9 15 -10 12 -10 15 4 15 17 0 21 12 9 24 -4 3 -8 12 -9 20 -1 7
-13 51 -28 98 -25 83 -27 85 -73 108 -27 13 -74 48 -105 77 -31 29 -65 53 -76
53 -11 0 -25 7 -32 15 -8 9 -21 13 -32 9 -12 -3 -25 2 -36 15 -29 34 -67 18
-109 -45 -20 -30 -39 -54 -42 -54 -3 0 -67 101 -141 224 -74 124 -138 221
-141 218 -3 -4 -68 -236 -144 -517 -76 -280 -141 -514 -145 -518 -4 -4 -40
119 -79 275 -40 156 -94 366 -120 468 l-48 185 -7 -240 c-4 -132 -15 -595 -26
-1030 -22 -884 -32 -1185 -37 -1169 -2 5 -18 82 -37 170 -169 803 -664 3111
-666 3104 -3 -15 -86 -1916 -95 -2190 -3 -102 -8 -205 -12 -230 -7 -52 31
-184 -334 1187 -129 486 -235 880 -236 875 -1 -4 -45 -340 -98 -746 -52 -406
-97 -741 -99 -744 -3 -2 -118 220 -256 494 -138 275 -249 488 -246 474 28
-150 392 -1905 408 -1965 77 -300 312 -577 599 -709 41 -19 701 -242 1467
-495 940 -312 1392 -466 1392 -475 0 -8 -41 -125 -90 -261 -50 -137 -88 -250
-86 -252 3 -3 34 -15 69 -28 l64 -24 83 232 c46 128 89 246 96 264 l13 32 68
-23 c37 -12 100 -31 140 -40 l71 -18 -24 -64 c-13 -36 -24 -66 -24 -68 0 -9
132 -48 138 -41 4 3 19 41 33 83 l26 77 79 3 c256 8 480 101 698 288 69 59
104 83 115 78 9 -4 84 -9 166 -11 234 -8 414 32 610 136 116 60 166 98 348
260 82 72 155 131 163 131 8 0 14 6 14 13 0 10 340 321 427 390 l22 18 -14
-48 c-8 -26 -15 -51 -15 -54 0 -8 106 -49 126 -49 16 0 37 68 66 212 l21 106
111 99 c61 54 151 134 200 178 l88 79 -7 -84 c-7 -80 -28 -221 -40 -265 -5
-17 4 -23 61 -44 53 -19 68 -21 74 -10 22 35 60 332 60 470 l0 65 183 162 182
162 8 -113 c7 -96 4 -374 -5 -430 -2 -15 11 -24 62 -42 73 -27 75 -27 86 50
10 61 7 422 -4 559 l-8 99 166 148 c91 81 167 146 168 144 12 -12 82 -580 82
-663 l0 -49 70 -25 70 -25 6 36 c9 47 -18 321 -61 617 l-34 237 44 49 c25 27
65 80 89 116 49 74 136 247 136 270 0 9 2 13 5 10 3 -3 56 -240 119 -527 62
-286 115 -524 118 -527 8 -7 127 17 134 27 2 4 -63 321 -146 704 -102 469
-154 732 -160 805 -7 71 -96 526 -260 1324 l-251 1216 532 1208 c583 1324 564
1279 555 1271 -3 -3 -29 -44 -57 -90 -112 -184 -312 -425 -515 -619 -55 -52
-196 -180 -314 -285 -118 -104 -270 -241 -339 -302 -68 -62 -128 -113 -131
-113 -16 0 -34 79 -195 825 -92 423 -168 772 -171 774 -2 2 -34 -2 -71 -10
-49 -10 -67 -18 -66 -29 4 -27 264 -1225 270 -1245 4 -15 -4 -11 -38 17 -62
54 -194 141 -260 173 l-56 28 -63 231 c-80 295 -185 616 -238 729 -41 88 -78
147 -90 147 -4 -1 -29 -20 -55 -44 l-49 -43 50 -104 c28 -57 75 -179 105 -270
65 -195 171 -568 164 -575 -3 -3 -83 20 -179 51 l-173 56 -34 97 c-87 254
-222 557 -303 686 -46 73 -109 156 -118 156 -4 0 -31 -20 -58 -45 l-51 -46 59
-82 c91 -126 195 -345 301 -631 19 -49 25 -77 17 -74 -7 3 -99 34 -204 68
l-191 64 -69 140 c-115 233 -251 449 -367 581 l-36 40 -51 -51 -52 -51 64 -79
c35 -43 91 -122 124 -174 66 -102 184 -313 184 -329 0 -5 -101 24 -225 66
l-225 75 -88 131 c-86 130 -256 351 -303 394 l-24 21 -52 -48 -53 -48 72 -84
c76 -88 220 -279 215 -284 -2 -2 -118 35 -258 82 l-254 85 -93 112 c-51 62
-110 131 -131 154 l-38 42 -51 -45 c-29 -25 -52 -49 -52 -54 0 -5 23 -34 51
-64 28 -31 49 -56 46 -56 -2 0 -87 27 -188 61 -101 33 -220 69 -264 79 -64 16
-84 25 -103 50 -29 37 -42 37 -72 5 -21 -22 -32 -25 -99 -25 -88 0 -187 -13
-285 -36 l-68 -17 -53 59 -53 59 -50 -45 c-27 -25 -50 -49 -51 -55 -1 -5 13
-23 30 -41 l30 -31 -58 -33 c-32 -18 -89 -53 -126 -78 l-68 -45 -52 59 c-29
32 -96 107 -150 167 l-99 107 -54 -46 c-30 -26 -54 -50 -54 -54 0 -4 10 -15
21 -26 30 -26 280 -306 277 -309 -2 -1 -52 -46 -112 -99 -60 -53 -112 -93
-116 -89 -4 4 -63 73 -131 153 -138 161 -281 322 -372 418 l-60 64 -50 -50
-50 -50 19 -25 c10 -14 68 -78 128 -143 94 -102 298 -338 381 -441 l26 -31
-107 -96 c-59 -53 -110 -96 -113 -95 -3 0 -33 33 -66 74 -146 180 -498 583
-679 777 l-82 88 -51 -53z m3339 -612 c147 -206 373 -615 513 -930 489 -1095
778 -2397 877 -3950 20 -310 16 -1155 -5 -1440 -10 -126 -21 -240 -23 -252 -3
-12 -15 -24 -27 -26 -34 -8 -287 -31 -291 -26 -2 2 2 58 10 124 80 701 84
1543 8 2305 -92 942 -312 1878 -624 2660 -244 613 -565 1194 -913 1653 -53 70
-97 129 -97 132 0 2 116 -35 258 -83 l257 -87 57 -80z m433 -78 l220 -74 62
-119 c652 -1244 1102 -3376 1158 -5489 6 -221 -9 -844 -23 -951 l-7 -52 -198
-176 c-109 -97 -199 -176 -201 -176 -2 0 5 46 14 103 10 56 23 144 30 195 l13
94 103 91 c57 50 102 92 100 94 -1 2 -39 -4 -85 -14 -45 -9 -84 -13 -87 -10
-4 3 0 91 7 194 21 291 19 1286 -4 1603 -122 1688 -483 3136 -1057 4248 -74
142 -220 396 -288 501 -15 22 -15 23 3 17 11 -3 119 -39 240 -79z m643 -214
c200 -67 204 -69 219 -103 8 -19 44 -110 78 -202 388 -1020 738 -2679 909
-4308 40 -376 61 -675 91 -1262 l6 -116 -43 -40 c-92 -86 -323 -290 -326 -287
-1 1 3 110 9 241 32 665 -22 1576 -147 2494 -190 1391 -524 2635 -939 3498
-41 83 -71 152 -67 152 4 0 98 -30 210 -67z m590 -197 c105 -36 176 -64 181
-74 30 -58 215 -735 310 -1140 l62 -263 -34 -47 c-50 -68 -76 -124 -98 -209
-61 -240 27 -420 239 -488 29 -9 55 -22 57 -29 26 -71 245 -1334 319 -1836 70
-473 156 -1163 156 -1255 0 -27 -20 -49 -167 -180 l-168 -148 -7 174 c-11 283
-28 537 -49 762 -167 1797 -560 3681 -995 4781 -6 15 -4 18 7 14 8 -3 92 -31
187 -62z m691 -232 c5 -5 76 -295 146 -598 l55 -238 -83 -97 c-45 -53 -95
-111 -110 -129 -18 -22 -29 -29 -31 -20 -3 7 -39 153 -81 323 -75 308 -139
548 -196 740 -17 55 -32 108 -35 117 -4 14 27 6 163 -39 92 -31 170 -57 172
-59z m305 -203 c82 -79 146 -162 189 -245 l26 -49 -96 -103 c-53 -57 -98 -102
-100 -100 -3 2 -26 98 -53 212 -26 115 -58 246 -69 291 -12 45 -21 84 -21 88
0 15 51 -24 124 -94z m721 -2616 c192 -927 218 -1064 222 -1170 6 -139 -11
-250 -57 -377 -28 -75 -98 -213 -105 -206 -2 2 -24 125 -50 273 -98 574 -204
1140 -351 1879 -58 290 -104 529 -102 530 2 1 46 21 98 45 52 24 101 52 109
63 8 10 15 17 17 16 1 -2 100 -475 219 -1053z m-581 848 c9 -30 162 -806 236
-1193 94 -497 138 -739 215 -1185 l65 -380 -22 -21 c-84 -78 -298 -264 -298
-259 0 63 -111 924 -166 1280 -76 500 -208 1257 -274 1579 -29 141 -33 130 63
149 45 9 100 23 122 31 52 19 53 19 59 -1z m-1489 -4300 c-9 -54 -26 -142 -37
-196 l-21 -98 -171 -152 c-203 -181 -258 -228 -263 -224 -1 2 6 35 17 73 18
61 67 252 84 326 4 19 66 81 202 203 108 97 199 174 201 171 3 -3 -2 -49 -12
-103z m-589 -458 c-4 -20 -25 -92 -47 -161 -22 -69 -38 -132 -35 -139 9 -25
-156 -76 -292 -91 -63 -7 -64 -6 -60 17 2 16 72 85 218 216 118 106 217 193
219 193 2 0 0 -16 -3 -35z"/>
<path d="M2591 5437 c-1 -8 205 -778 215 -807 6 -17 114 231 114 261 0 21 -15
25 -26 8 -4 -8 -14 2 -26 25 -16 30 -22 35 -33 26 -12 -10 -17 -7 -26 13 -6
14 -20 28 -31 30 -26 7 -112 193 -142 309 -23 89 -44 152 -45 135z"/>
<path d="M4470 3651 c0 -16 60 -61 81 -61 28 0 24 5 -31 39 -27 17 -50 27 -50
22z"/>
<path d="M4480 3600 c12 -22 49 -50 67 -50 24 0 13 15 -33 42 -38 23 -43 25
-34 8z"/>
</g>
</svg>
